Name,Email,Phone,Discount
Leah McConnachie,Leah.mcconnachie@raywhite.com,400369609,
Leah McConnachie,Leah.mcconnachie@raywhite.com,400369609,
Leah McConnachie,Leah.mcconnachie@raywhite.com,400369609,
Leah McConnachie,leah.collings@raywhite.com,400369609,TRIAL40
Leah McConnachie,Leah.mcconnachie@raywhite.com,400369609,
Leah McConnachie,Leah.mcconnachie@raywhite.com,400369609,TRIAL40
Joanne Conlan,Littlebakes84@hotmail.com,401038487,DINNERBOWL50
Joanne Conlan,Littlebakes84@hotmail.com,401038487,BOWL70
Joanne Conlan,Meandjb@yahoo.com.au,401038487,
Joanne Conlan,Meandjb@yahoo.com.au,401038487,NEWBOWLS
Joanne Conlan,Meandjb@yahoo.com.au,401038487,
Joanne Conlan,Meandjb@yahoo.com.au,401038487,TRIAL40
Rochelle Kosmeier,Rochelle.Kosmeier@gmail.com,401765795,
Rochelle Kosmeier,Rochelle.Kosmeier@gmail.com,401765795,
Rochelle Kosmeier,Rochelle.Kosmeier@gmail.com,401765795,TRIAL40
Rochelle Kosmeier,chuppachickie@hotmail.com,401765795,BOWL70
Rochelle Kosmeier,Rochelle.Kosmeier@gmail.com,401765795,TRY70
jamie perry,audreywcreative@gmail.com,401811480,
jamie perry,audreywcreative@gmail.com,401811480,TRIAL50
Audrey Won,audrey.won@hotmail.com,401811480,TRY70
Keiko Saito,ksai0001@student.monash.edu,401921337,BOWL70
Keiko Saito,keiko-saito@hotmail.com,401921337,BOWL70
Alisha Russell,alisha@chinacreek.com.au,401936986,
Scott Russell,sailfishswim@hotmail.com,401936986,
Alisha Russell,alisha@chinacreek.com.au,401936986,
Scott Russell,sailfishswim@hotmail.com,401936986,TRY70
Alisha Russell,alisha@chinacreek.com.au,401936986,TRY70
Ryan Whitmore,r.t.whitmore@gmail.com,402033408,
Ryan Whitmore (order test),ryan.whitmore@madpaws.com.au,402033408,
Ryan Whitmore,ryan.whitmore@madpaws.com.au,402033408,
Ryan Whitmore,ryan.whitmore@madpaws.com.au,402033408,
Ryan Whitmore (Customer Test),r.t.whitmore@gmail.com,402033408,
Ryan Whitmore (customer transaction test),ryan.whitmore.game@gmail.com,402033408,TRIAL40
Ryan Whitmore,r.t.whitmore@gmail.com,402033408,TRIAL20
Ryan Whitmore (order test),ryan.whitmore@madpaws.com.au,402033408,
Ryan Whitmore (Customer Test),r.t.whitmore@gmail.com,402033408,TRIAL40
Ryan Whitmore,ryan.whitmore@madpaws.com.au,402033408,TRIAL40
Chris Bloom,Chris@visualempire.com.au,402070000,
Annie Bloom,annie@visualempire.com.au,402070000,
Chris Bloom,Chris@visualempire.com.au,402070000,WELOVE70
Annie Bloom,annie@visualempire.com.au,402070000,RETURN50
Naomee Golluccio,Naomeeg@hotmail.com,402478944,
Naomee Golluccio,Naomeeg@hotmail.com,402478944,
Sarah Barnes,Naomee@urbanpsychology.com.au,402478944,
Naomee Golluccio,Naomeeg@hotmail.com,402478944,VICTORIA50
Sarah Barnes,Naomee@urbanpsychology.com.au,402478944,TRIAL40
Naomee Golluccio,Naomeeg@hotmail.com,402478944,
Naomee Golluccio,Naomeeg@hotmail.com,402478944,TRIAL40
Charles Account Tester Two,charleszeitunian123444@hotmail.com,402853163,TRIAL40
Charles My Account Zeitunian Tester,charlestestermannnnn@outlook.com,402853163,
Charles Zeitunian,charles.zeitunian@madpaws.com.au,402853163,
Charles Zeitunian,charles.zeitunian@madpaws.com.au,402853163,
Charles Tester 21 My Account Test,charlestester21@mail.com,402853163,
Charles My Account Cancellation Zeitunian Tester,charlestestermannnnn@outlook.com,402853163,TRIAL40
Charles Puppy Zeitunian Address Tester,charles.zeitunian@madpaws.com.au,402853163,
Charles Long Zeitunian Freq Test,charles.zeitunian@madpaws.com.au,402853163,
Charles Zeitunian,charles.zeitunian@madpaws.com.au,402853163,
Charles Zeitunian,charles.zeitunian@madpaws.com.au,402853163,
Charles Tester Zeitunian Tester,charlestester99@mail.com,402853163,
Charles Big Combo Zeitunian Tester,charles.zeitunian@madpaws.com.au,402853163,
Charles Zeitunian,charles.zeitunian@madpaws.com.au,402853163,
Charles Kibble Only Zeitunian Tester,ddd@c.com,402853163,TRIAL40
Charles Raw Only Zeitunian Test,charles.zeitunian@madpaws.com.au,402853163,
Charles Mixed Bowl Zeitunian Tester,charleskibbletester@hotmail.com,402853163,TRIAL40
Charles Tester 21 My Account Test,charlestester21@mail.com,402853163,
Charles Zeitunian,charlestester4444@outlook.com,402853163,
Charles My Account Zeitunian Tester,madpawsacounttester21@outlook.com,402853163,NEWSOUTH50
Charles Tester Zeitunian Tester,charlestester99@mail.com,402853163,
Charles Tester Zeitunian Tester,charlestester99@mail.com,402853163,TRIAL40
Charles Tester 21 My Account Test,charlestester21@mail.com,402853163,SOCIAL70
Charles Zeitunian,tester36@madpaws.com.au,402853163,VICVIP
Charles Coupon Zeitunian VIP50,tester33@madpaws.com.au,402853163,VIP50
sdwsdWQ ASFAwfdWAF,fuck@fuckme.com,402853163,
Charles Tester Victoria Coupon Zeitunian,charles.zeitunian@testa.com.au,402853163,VICTORIA60
Charles Zeitunian,tester2@test.com,402853163,
Charles Zeitunian,tester1@test.com,402853163,
Charles Zeitunian,tester11111@dorgeawg.com,402853163,
Charles Zeitunian,tester3@test.com,402853163,
Charles Zeitunian,charlestester@mail.com,402853163,
Charles Zeitunian,TEST@TESTER.COM,402853163,
Charles Zeitunian,charles.zeitunian@madpaws.com.au,402853163,
Charles Zeitunian,testerczmay@test.com,402853163,
Charles Zeitunian,testerczmayten@madpaws.com.au,402853163,
Charles Customer Zeitunian Replication,charles.tester@madpaws.com.au,402853163,TRIAL70
Charles Zeitunian,charles.zeitunian.tester2@madpaws.com.au,402853163,BOWL70
Charles Zeitunian Referral Program Test,testercz@do.com,402853163,sarahowe100
Charles Zeitunian,afternoontest2@test.com,402853163,TRIAL70
Charles Zeitunian,cz2@testertester.com,402853163,GET70
sdwsdWQ ASFAwfdWAF,fuck@fuckme.com,402853163,GET70
Charles Zeitunian,cz22GGGGsss@dooood.com,402853163,BOWL70
Charles Zeitunian,cztester@cz.com,402853163,TRY70
Charles Zeitunian,charles.zeitunian@madpaws.com.au,402853163,
Charles Zeitunian,cztester11111@cz.com,402853163,GET70
Charles Zeitunian,tester11111@dorgeawg.com,402853163,
Charles Zeitunian,charlestester@mail.com,402853163,
Charles Zeitunian,tester3@test.com,402853163,
Charles Zeitunian,tester2@test.com,402853163,
Charles Zeitunian,TEST@TESTER.COM,402853163,TRY70
Charles Zeitunian,charles.zeitunian@madpaws.com.au,402853163,
Charles Zeitunian,testerczmay@test.com,402853163,TRIAL40
Charles Zeitunian,testerczmayten@madpaws.com.au,402853163,TRY70
Charles Zeitunian,tester3@test.com,402853163,TRY70
Charles Zeitunian,tester2@test.com,402853163,
Charles Zeitunian,tester1@test.com,402853163,GET70
Charles Zeitunian,czbooger@hotmail.com,402853163,
Charles Tester Zeitunian Delete,charles.zeitunian@madpaws.com.au,402853163,
Charles Kev Puppy Tester Zeitunian Tester,charles.zeitunian@madpaws.com.au,402853163,
Charles Zeitunian,czbooger@hotmail.com,402853163,TRIAL40
Charles Zeitunian,charles.zeitunian@madpaws.com.au,402853163,TRIAL40
Charles Tester Zeitunian Tester,czeitunian@hotmail.com,402853163,
Charles Zeitunian,charles.zeitunian@gmail.com,402853163,
Charles Zeitunian,charles.zeitunian@gmail.com,402853163,
Charles Zeitunian,charles.zeitunian@gmail.com,402853163,TRIAL40
Elvis Chung,Elvis-c22@hotmail.com,403844775,KIBBLE70
Sarah Mak,sarahmak.90@hotmail.com,403844775,KIBBLE70
Daniel Mawbey,danielmawbey@gmail.com,404026528,
Daniel Mawbey,danielmawbey@gmail.com,404026528,
Daniel Mawbey,danielmawbey@gmail.com,404026528,
Daniel Mawbey,danielmawbey@gmail.com,404026528,BOWL70
Daniel Mawbey,daniel.mawbey@gmail.com,404026528,
Daniel Mawbey,daniel.mawbey@gmail.com,404026528,TRIAL40
Sarah Tyler Tyler,slv7064@gmail.com,404598166,BUY70
Sarah Lee Tyler,goe7064@gmail.com,404598166,BUY70
Sarah Gibbs,slv7064@gmail.com,404598166,TRIAL40
Brad Gee,bktcgiesen@gmail.com,405325104,
Brad Gee,bktcgiesen@gmail.com,405325104,TRIAL40
Kylie Giesen,bktcg@hotmail.com,405325104,TRIAL40
Tag Yassine,tagrid.yassine@alumni.uts.edu.au,405409207,
Tag Yassine,tagrid.yassine@alumni.uts.edu.au,405409207,TRIAL40
Tag Yass,T.Yassine2@westernsydney.edu.au,405409207,TRIAL70
Tagrid Yassine,tagrid.yassine@alumni.uts.edu.au,405409207,TRIAL70
Rebecca Tesoriero,Becmills.is@gmail.com,407105617,DINNERBOWL50
Rebecca Tesoriero,rebeccatesoriero@gmail.com,407105617,
Rebecca Tesoriero,rebeccatesoriero@gmail.com,407105617,
Rebecca Tesoriero,rebeccatesoriero@gmail.com,407105617,
Rebecca Tesoriero,rebeccatesoriero@gmail.com,407105617,
Buzz Tesoriero,Becmills.is@gmail.com,407105617,
Rebecca Tesoriero,rebeccatesoriero@gmail.com,407105617,NEWBOWLS
Buzz Tesoriero,Becmills.is@gmail.com,407105617,
Buzz Tesoriero,Becmills.is@gmail.com,407105617,
Buzz Tesoriero,Becmills.is@gmail.com,407105617,
Buzz Tesoriero,Becmills.is@gmail.com,407105617,TRIAL70
Rebecca Tesoriero,rebeccatesoriero@gmail.com,407105617,TRIAL70
Sophie Daley,S.daley@latrobe.edu.au,407857599,TRIAL70
Sophie Daley,sophie_princess10@hotmail.com,407857599,TRIAL50
Chantelle Jones,Chantellejones187@gmail.com,408659276,TRIAL40
Chantelle Jones,Chantellesheen@gmail.com,408659276,TRIAL40
Chantelle Jones,Chantellejones187@gmail.com,408659276,TRIAL40
Chantelle Jones,Sheenchantelle@gmail.com,408659276,TRIAL40
Chantelle Jones,Sheenchantelle@gmail.com,408659276,TRIAL40
Vickie Jones,Sheenchantelle@gmail.com,408659276,TRIAL40
Chantelle Jones,Sheenchantelle@gmail.com,408659276,TRIAL40
Ronnie Trapp,ronja@matrix888.com,408814866,TRIAL40
Ronnie Trapp,Mcronja@msn.com,408814866,
Ronnie Trapp,Mcronja@msn.com,408814866,NEWBOWLS
Ronnie Trapp,ronjatrapp@gmail.com,408814866,TRIAL40
Ronnie Trapp,Mcronja@msn.com,408814866,TRIAL40
Monique Calleja,tim.waters@hotmail.com,408819356,
Monique Calleja,tim.waters@hotmail.com,408819356,BOWL70
Monique Calleja,Monique.Calleja@education.Vic.gov.au,408819356,BOWL70
Moni Calleja,Monique.Calleja@hotmail.com,408819356,BOWL70
Chun Yao,601154625@qq.com,409424282,TRIAL70
William Qu,Arielyao92@gmail.com,409424282,TRIAL70
Rebecca Eggers,rebecca.eggers@gmail.com,409906797,
Rebecca Eggers,rebecca.eggers@nwpd.com,409906797,
Rebecca Eggers,rebecca.eggers@nwpd.com,409906797,
Rebecca Eggers,rebecca.eggers@nwpd.com,409906797,
Rebecca Eggers,rebecca.eggers@nwpd.com,409906797,
Rebecca Eggers,rebecca.eggers@gmail.com,409906797,
Rebecca Eggers,rebecca.eggers@nwpd.com,409906797,TRIAL40
Rebecca Eggers,rebecca.eggers@gmail.com,409906797,TRIAL40
Justice Felton,justicefelton98@hotmail.com,409978446,
Justice Lamos-Felton,justicefelton98@gmail.com,409978446,
Justice Lamos-Felton,justicefelton98@gmail.com,409978446,TRIAL40
Nash Mah,amahendran@redcross.org.au,410246883,REVIEW15
Nash Mah,amahendran@redcross.org.au,410246883,SOCIAL70
Avinash Mahendran,avinashmahendran@hotmail.com,410246883,TRIAL70
Sam Allison,sam@theincredibleproductioncollective.com,410264291,SOCIAL70
SAM ALLISON,sam.allison@me.com,410264291,
SAM ALLISON,sam.allison@me.com,410264291,TRY70
Kars Rao,Karen.rao@outlook.com,410518310,DINNERBOWL50
Kars Rao,karsellarr@gmail.com,410518310,VIC50OFF
Kars Rao,karsellarr@gmail.com,410518310,VIC50OFF
Brooke Sleaford,info@moonlightevents.com.au,410540511,BUY70
Brooke Sleaford,brooke_hanmore@aol.com,410540511,BUY70
Rangat Oberai,rangato@gmail.com,410747946,
Rangat Oberai,rangat.oberai@madpaws.com.au,410747946,
Rangat Oberai,rangato@gmail.com,410747946,
Rangat Oberai,rangat.oberai@madpaws.com.au,410747946,
Rangat Oberai,rangato@gmail.com,410747946,
Rangat Oberai,rangat.oberai@madpaws.com.au,410747946,TRIAL40
Rangat Oberai,rangato@gmail.com,410747946,
Rangat Oberai,rangato@gmail.com,410747946,
Rangat Oberai,rangato@gmail.com,410747946,
Rangat Oberai,rangato@gmail.com,410747946,
Rangat Oberai,rotirepublic@gmail.com,410747946,
Rangat Oberai,rangato@gmail.com,410747946,
Rangat Oberai,rotirepublic@gmail.com,410747946,TRIAL40
Rangat Singh Oberai,rangato@gmail.com,410747946,
Rangat Singh Oberai,rangato@gmail.com,410747946,TRIAL40
Hafize Dagli,hafize_dahli69@hotmail.com,411078233,STARTER70
Hafize Dagli,hafize_dagli69@hotmail.com,411078233,
Hafize Dagli,hafize_dagli69@hotmail.com,411078233,TRIAL40
Karim Mouahbi,Karim+test@gmail.com,412274532,
Karim Mouahbi,Karim+test@gmail.com,412274532,TRIAL40
Nerolie Mouahbi,karim@billysixes.com,412274532,
Nerolie Mouahbi,karim@billysixes.com,412274532,TRIAL20
Nerolie Mouahbi,karim@madpaws.com.au,412274532,
Nerolie Mouahbi,karim@madpaws.com.au,412274532,PACKLOVE
Miquel Baumgarten,Mbaumgarten@4wdsupacentre.com.au,412647835,
Miquel Baumgarten,Mbaumgarten@4wdsupacentre.com.au,412647835,TRIAL40
Miquel Baumgarten,jamiemiquel@gmail.com,412647835,
Miquel Baumgarten,jamiemiquel@gmail.com,412647835,TRIAL40
Clint Baker,clinny@live.com.au,412752509,TRIAL40
Sherryn Elworthy,Shezz75@hotmail.com,412752509,TRIAL40
Mary Leung,jwingsfay@gmail.com,413562831,TRIAL40
Jasper Leung,jaspieleung@gmail.com,413562831,TRIAL40
Amandeep Kaur,kaura2794@gmail.com,414515286,NEW70
Jastej Singh,js25singh@gmail.com,414515286,NEW70
Matt Sinnamon,mattsinnamon@hotmail.com,414884888,TRIAL70
Matt Sinnamon,mattsinnamon@gmail.com,414884888,TRIAL40
James Lyne,cath_monkeymail@hotmail.com,415055500,TRIAL40
Cathie Lyne,cathlyne83@gmail.com,415055500,TRIAL40
Lucy DAVEY,Lucyrdavey@gmail.com,415233565,
Lucy DAVEY,Lucyrdavey@gmail.com,415233565,BUY70
Lucy Davey,lucy@Splitpayments.com.au,415233565,MISSYOU50
Lucy Davey,lucy@Splitpayments.com.au,415233565,TRIAL40
Kathryn Elliott,kathryn.elliott2@gmail.com,416269177,
Kathryn Elliott,kathryn.elliott2@gmail.com,416269177,TRIAL40
STEPHEN PICTON,steve.picton3@gmail.com,416269177,NORTH100
Cheree Pirika,ELEFUNK@HOTMAIL.COM,416435911,
Cheree Pirika,ELEFUNK@HOTMAIL.COM,416435911,
Cheree Pirika,ELEFUNK@HOTMAIL.COM,416435911,
Cheree Pirika,ELEFUNK@HOTMAIL.COM,416435911,
Cheree Pirika,ELEFUNK@HOTMAIL.COM,416435911,
Cheree Pirika,ELEFUNK@HOTMAIL.COM,416435911,
Cheree Pirika,ELEFUNK@HOTMAIL.COM,416435911,
Cheree Pirika,ELEFUNK@HOTMAIL.COM,416435911,
Cheree Pirika,ELEFUNK@HOTMAIL.COM,416435911,
Cheree Pirika,ELEFUNK@HOTMAIL.COM,416435911,
Cheree Pirika,ELEFUNK@HOTMAIL.COM,416435911,TRIAL20
Cheree Pirika,elefunk@hotmail.com,416435911,
WEIYU WANG,bellawang0012@Gmail.com,416760221,BUY70
WEIYU WANG,276842753wwy@Gmail.com,416760221,BUY70
WEIYU WANG,bellawang0012@Gmail.com,416760221,BOWL70
Sian Isaac,sian.isaac@yahoo.co.uk,416962028,DINNERBOWL50
Sian Isaac,sian.isaac@yahoo.co.uk,416962028,NEWFOOD40
Sian Isaac,sian.isaac@yahoo.co.uk,416962028,RETURN50
Sian Isaac,sian.isaac@yahoo.co.uk,416962028,NEWBOWLS
Brett Cockburn,Happy_syke@hotmail.com,416962028,SWITCH50
Sian Isaac,thinking-aloud@hotmail.co.uk,416962028,TRIAL50
Sian Isaac,sian.isaac@yahoo.co.uk,416962028,TRIAL40
James Wilkinson,wilko_james@yahoo.com.au,419696277,LOCKDOWN50
James Wilkinson,wilkoja@gmail.com,419696277,TRIAL40
James Wilkinson,wilkoja@gmail.com,419696277,NEW70
James Wilkinson,wilko_james@yahoo.com.au,419696277,TRIAL40
Kazz Arnold,Karzie@hotmail.com,420383808,KIBBLE70
Chris Bartley,Karzie@gmail.com,420383808,VIC50
Kazz Arnold,Karzie@hotmail.com,420383808,VIC50
Shianne Van Der Weiden,Stb.vanderweiden@hotmail.com,420516259,
Shianne Van Der Weiden,Stb.vanderweiden@hotmail.com,420516259,
Shianne Van Der Weiden,shianne.johan@hotmail.com,420516259,
Shianne Van Der Weiden,Stb.vanderweiden@hotmail.com,420516259,TRY70
Shianne Van Der Weiden,shianne.johan@hotmail.com,420516259,TRY70
Josh May,joshmay72@gmail.com,421056674,TRIAL40
Josh May,jmay@bomboragroup.com.au,421056674,
Josh May,jmay@bomboragroup.com.au,421056674,
Josh May,jmay@bomboragroup.com.au,421056674,
Josh May,jmay@bomboragroup.com.au,421056674,
Josh May,jmay@bomboragroup.com.au,421056674,
Josh May,jmay@bomboragroup.com.au,421056674,
Josh May,jmay@bomboragroup.com.au,421056674,TRIAL40
Shanae Horsburgh,shanae.horsburgh@health.qld.gov.au,421106898,BOWL70
Shanae Horsburgh,shanaeashlea@gmail.com,421106898,BOWL70
Ami Mullenger,ami.mullenger@lacework.net,421553606,SWITCH70
Ami Mullenger,Amimullenger19@gmail.com,421553606,TRY70
Rosemary Ferguson,rfergnz@gmail.com,421999894,KIBBLE70
Luana Ferguson,lfergnz@gmail.com,421999894,KIBBLE70
Luana Ferguson,lfergnz@gmail.com,421999894,VIC50
Lyn Nguyen,xlynguyen@gmail.com,422773210,BUY70
Lyn Nguyen,lynguyen@live.com,422773210,TRIAL40
Terrie Gardiner,terrie_gardiner@hotmail.com,423612929,TRIAL40
Aaron Mullarvey,tgfitness@outlook.com,423612929,TRIAL40
Cecile Tang,wingyan528@hotmail.com,423666236,TRY70
Cecile Tang,ceciletang@outlook.com,423666236,
Cecile Tang,ceciletang@outlook.com,423666236,SWITCH50
shell weiden,michelle.vanderweiden1@det.nsw.edu.au,423749704,TRY70
Michelle Van der weiden,Mybell@hotmail.com.au,423749704,
Michelle Van der weiden,Mybell41@gmail.com,423749704,TRY70
Michelle Van der weiden,Mybell@hotmail.com.au,423749704,TRY70
Victor Hernandez Moreno,hernandez.moreno@icloud.com,424406813,TRIAL40
Adhara Ferra,adhara@me.com,424406813,TRY70
Terrie Gardiner,terrie_gardiner@hotmail.com,424612929,TRIAL40
Aaron Mullarvey,tgfitness@outlook.com,424612929,TRIAL40
Terrie Gardiner,terrie_gardiner@hotmail.com,424612929,TRIAL40
Prasanna Wijenayake,c.wijenayake@hotmail.com,426131308,BOWL70
Christine Langer,Tine_langer@live.com,426131308,TRY70
Akariva Niubalavu,akadurusolo737@gmail.com,426355525,KIBBLE70
Lisa Yin,lisayy.ly@gmail.com,426355525,KIBBLE70
Lisa Yin,lisayy.ly@gmail.com,426355525,TRIAL40
Xiaobei LI,LXBBella@gmail.com,426966880,TRIAL70
Bella LI,Bella_beibei1993@hotmail.com,426966880,TRIAL70
sizhe cai,sizhe.cindy.cai@outlook.com,427009083,TRIAL70
Cindy Cai,c87966764@gmail.com,427009083,TRIAL70
Shaun Stowe,shaunstowe@icloud.com,427269301,BOWL70
Shaun Stowe,shaunstowe@gmail.com,427269301,BOWL70
Lorina Perez,gerina@finns.com.au,431481226,
Lorina Perez,gerina@finns.com.au,431481226,SOCIAL70
Gerina Perez,gerinaperez@hotmail.com,431481226,SOCIAL70
Kailah Potts,Kailahpotts25@outlook.com,431606903,START70
Kailah Potts,Kailah.potts@hotmail.com,431606903,
Kailah Potts,Amir_moussa98@hotmail.com,431606903,START70
Kailah Potts,Kailah.potts@hotmail.com,431606903,START70
Emma Thomas,dvthomas1@bigpond.com,431845532,DINNERBOWL50
Emma Thomas,dvthomas1@bigpond.com,431845532,SOCIAL70
Emma Thomas,emat_90@hotmail.com,431845532,SOCIAL70
Jamie MacKenzie,Jamie.mack89@gmail.com,431854886,TRIAL40
Jamie MacKenzie,jmackenzie@synergygroup.net.au,431854886,
Jamie MacKenzie,jmackenzie@synergygroup.net.au,431854886,TRIAL40
Jamie MacKenzie,Jamie.mack89@gmail.com,431854886,SWITCH50
Jamie MacKenzie,jamie.mack89@hotmail.com,431854886,TRIAL40
Aubrey Trinidad,Aubreypaynebrooks13@gmail.com,432024962,TRIAL70
Aubrey Trinidad,Aubrey.trinidad13@gmail.com,432024962,BOWL70
Angela Nigam,ruchikaivf@yahoo.com,432303732,START70
Ruchika Nigam,ruchika.nigam@gmail.com,432303732,
Ruchika Nigam,ruchika.nigam@gmail.com,432303732,TRY70
Ming Xia,terry.xiaming@gmail.com,432602791,TRIAL70
MING XIA,terry.mingxia@gmail.com,432602791,TRIAL70
Michele Ducquet,m.v.ducquet@gmail.com,432632105,LOCKDOWN50
Michele Ducquet,Scienceoffierce@gmail.com,432632105,SWITCH70
Michele Ducquet,m.v.ducquet@gmail.com,432632105,TRIAL40
Amy Howley,Amyhowley17@live.com.au,432662808,
Amy Howley,Amyhowley17@live.com.au,432662808,
Amy Howley,Amyhowley26@gmail.com,432662808,
Amy Howley,Amyhowley17@live.com.au,432662808,
Amy Howley,Amyhowley17@live.com.au,432662808,
Amy Howley,Amyhowley26@gmail.com,432662808,
Amy Howley,Amyhowley17@live.com.au,432662808,
Amy Howley,Amyhowley17@live.com.au,432662808,TRIAL40
Amy Howley,Amyhowley26@gmail.com,432662808,TRIAL40
Amy Howley,Amyhowley17@live.com.au,432662808,BOWL70
Selina Bridger,Levi259@iclpud.com,433383244,TRIAL40
Selina Bridger,Levi259@icloud.com,433383244,TRIAL40
Xinyi Liang,2373915295@qq.com,433900106,SWITCH70
Xinyi liang,18538101618@163.com,433900106,TRIAL40
Grace Liang,xllia@student.unimelb.edu.au,433900106,BUY70
Grace Liang,xinyiliang0106@gmail.com,433900106,TRIAL40
Allan Barrow,aussielady@tpg.com.au,434621348,BOWL70
Annette Horsburgh,brissylady63@hotmail.com,434621348,BOWL70
Mim Brenden,mimlam99@gmail.com,434646867,
Mim Brenden,mimlam99@gmail.com,434646867,TRIAL40
Mimosa Lambarlow,mimosagrace99@gmail.com,434646867,TRIAL40
Dale Burgoyne,C3303116@uon.edu.au,435246698,NEW70
Kelly Su,Kelly_kins2000@hotmail.com,435246698,
Kelly Su,Kelly_kins2000@hotmail.com,435246698,NEW70
Kelly Su,Kellyy_55@outlook.com,435246698,TRIAL40
Ell Mead,elluminatecreative@gmail.com,437321723,TRIAL40
Ell Mead,ellmead79@gmail.com,437321723,
Ell Mead,ellmead79@gmail.com,437321723,TRIAL40
Ell Mead,ellmead79@gmail.com,437321723,
Ell Mead,ellmead79@gmail.com,437321723,
Ell Mead,ellmead79@gmail.com,437321723,
Michelle Black,hwhproject@outlook.com,447645832,KIBBLE70
Michelle Black,ozzipets@outlook.com,447645832,SOCIAL70
Melissa Lindsay,mlindsay09@live.com.au,448252718,BOWL70
Aidan Palmer,palmer-011@hotmail.com,448252718,BOWL70
Gordon Gately,gordongately@gmail.com,448431818,
Gordon Gately,gordongately@gmail.com,448431818,TRIAL40
Gordon Gately,Gatelygordon@gmail.com,448431818,TRIAL40
Julie RADOVU,radovu02@yahoo.com.au,449724605,UNLOCK50
Julie RADOVU,radovu02@yahoo.com.au,449724605,
Julie RADOVU,radovu02@yahoo.com.au,449724605,TRIAL40
Julie Radovu,julieradovu@gmail.com,449724605,
Julie Radovu,radovu02@yahoo.com.au,449724605,TRIAL40
Julie Radovu,julieradovu@gmail.com,449724605,TRIAL40
Julie Radovu,radovu02@yahoo.com.au,449724605,
Julie Radovu,radovu02@yahoo.com.au,449724605,TRIAL40
Emma Campbell,e.campbell@eml.com.au,450180892,TRIAL40
Peter Campbell,p.campbell1@outlook.com.au,450180892,
Peter Campbell,p.campbell1@outlook.com.au,450180892,
Peter Campbell,p.campbell1@outlook.com.au,450180892,
Peter Campbell,p.campbell1@outlook.com.au,450180892,TRIAL40
Jenny Campbell,Jennysuecampbell2@gmail.com,450180892,
Jenny Campbell,Jennysuecampbell2@gmail.com,450180892,
Jenny Campbell,Jennysuecampbell2@gmail.com,450180892,TRIAL40
Daniel Simpson,Dcsimpson@outlook.com,450433680,SOCIAL70
Anna Snodgrass,Annasnodgrass@me.com,450433680,UNLOCK50
Samantha Hill,ssammyleeee87@yahoo.com,450614262,TRIAL70
Samantha Hill,manthahill87@hotmail.com,450614262,TRIAL40
Samantha Hill,samanthah.87@hotmail.com,450614262,TRIAL40
Natalie Back,Natalieback85@gmail.com,450909885,MOLLIE50%
Eric Talanoa,Estalanoa@gmail.com,450909885,BOWL70
Natalie Back,Natalieback85@gmail.com,450909885,
Natalie Back,Natalieback85@gmail.com,450909885,
Natalie Back,Natalieback85@gmail.com,450909885,
Natalie Back,Natalieback85@gmail.com,450909885,BOWL70
Andrew Daniels,amdaniels11.ad@gmail.com,452221340,
Andrew Daniels,amdaniels11.ad@gmail.com,452221340,
Andrew Daniels,amdaniels11.ad@gmail.com,452221340,
Andrew Daniels,amdaniels11.ad@gmail.com,452221340,TRIAL40
Brenda Abarabar,brendzabar2@yahoo.com,452221340,BOWL70
Deeksha Attavar,Deeksha.attavar@hotmail.com,452221393,BOWL70
Deeksha Attavar,Deeksha.attavar@gmail.com,452221393,BOWL70
Ernesto Arias,ernesto.arias@suttons.com.au,456106893,BUY70
Ernesto Arias,ernestogabrielarias@gmail.com,456106893,START70
Adrianna Glowacki,a.glo.au@gmail.com,456110163,
Adrianna Glowacki,a.glo.au@gmail.com,456110163,
Adrianna Glowacki,a.glo.au@gmail.com,456110163,TRIAL40
Adrianna Glowacki,adriannaglowacki@yahoo.com,456110163,TRIAL40
Milo Woodlands,c8linlouise@gmail.com,456373236,NEW70
Amy Woodlands,woodlandsamy@gmail.com,456373236,
Amy Woodlands,woodlandsamy@gmail.com,456373236,TRIAL40
Elise Smith,Elisejane98@gmail.com,456451000,
Elise Smith,Elisejane98@gmail.com,456451000,
Elise Smith,Elisejane98@gmail.com,456451000,TRY70
elise smith,ejluvsjudo@gmail.com,456451000,
elise smith,ejluvsjudo@gmail.com,456451000,
elise smith,ejluvsjudo@gmail.com,456451000,
elise smith,ejluvsjudo@gmail.com,456451000,TRIAL40
haley pizzey,haleyrose_5326@hotmail.com,457741125,DINNERBOWL50
haley pizzey,daddys_little_girl_haley@yahoo.com,457741125,MISSYOU50
Haley Pizzey,haleyrose_5326@hotmail.com,457741125,NEWFOOD40
haley pizzey,Haleyrose_5326@icloud.com,457741125,DINNERBOWL50
Haley Pizzey,Haleyrose_5326@icloud.com,457741125,NEW70
Haley Pizzey,haleyp@marcopolo.org.au,457741125,TRIAL50
Haley Pizzey,daddys_little_girl_haley@yahoo.com,457741125,TRIAL50
Haley Pizzey,haleyrose_5326@hotmail.com,457741125,TRIAL40
WALEED KHAN,b.gascoyne@student.unsw.edu.au,458065240,KIBBLE70
Bonnie Gascoyne,blgascoyne@gmail.com,458065240,KIBBLE70
Amy Hender,amybubbles@live.com.au,459942546,TRIAL40
Amy Hender,ahender914@gmail.com,459942546,TRIAL50
Jasmin Arnall,gingerbreadfilly@gmail.com,466284187,
Jasmin Arnall,gingerbreadfilly@gmail.com,466284187,TRIAL40
Jasmin Arnall,jasminann96@hotmail.com,466284187,TRIAL40
Carly Green,carlyg802@gmail.com,466441563,
Carly Green,carlyg802@gmail.com,466441563,TRIAL70
Carly Green,carly_khetto@live.co.uk,466441563,TRIAL70
alex zhao,1980132631@qq.com,466635207,TRIAL40
Alex Zhao,zinogrev@gmail.com,466635207,TRIAL40
Chanelle haynes,shazz_dkh@hotmail.com,466896694,
Chanelle Haynes,Chanelle_haynes@hotmail.com,466896694,TRIAL40
Chanelle haynes,shazz_dkh@hotmail.com,466896694,
Chanelle haynes,shazz_dkh@hotmail.com,466896694,
Chanelle haynes,shazz_dkh@hotmail.com,466896694,
Chanelle haynes,shazz_dkh@hotmail.com,466896694,BOWL70
Emily Tillett,etillett926@gmail.com,467169990,TRIAL40
Emily Tillett,etillett926+1@gmail.com,467169990,PATRICIA95
Emily Tillett,emily.tillett@madpaws.com.au,467169990,
Emily Tillett,etillett926@gmail.com,467169990,TRIAL40
Emily Tillett,etillett926@gmail.com,467169990,TRIAL40
Emily Tillett,etillett926@gmail.com,467169990,TRIAL40
Emily Tillett,etillett926@gmail.com,467169990,TRIAL40
Emily Tillett,etillett926@gmail.com,467169990,TRIAL20
Emily Tillett,etillett926@gmail.com,467169990,TRIAL20
Yana Wilson,yana_wilson@hotmail.com,467250666,EAST100
Yana Wilson,yana_wilson@hotmail.com,467250666,EAST100
Yana Wilson,yana.alexandra@gmail.com,467250666,TRIAL40
Molly Kent,Natht1998@gmail.com,475171820,
Molly Kent,Natht1998@gmail.com,475171820,BOWL70
Molly Kent,mollyken.t@outlook.com,475171820,BOWL70
Helen Baker,helenbaker4545@gmail.com,476918680,
Helen Baker,helenbaker4545@gmail.com,476918680,
Helen Baker,helenbaker4545@gmail.com,476918680,
Helen Baker,bakerh@tpg.com.au,476918680,
Helen Baker,bakerh@tpg.com.au,476918680,
Helen Baker,bakerh@tpg.com.au,476918680,
Helen Baker,bakerh@tpg.com.au,476918680,
Helen Baker,bakerh@tpg.com.au,476918680,
Helen Baker,bakerh@tpg.com.au,476918680,
Helen Baker,bakerh@tpg.com.au,476918680,
Helen Baker,bakerh@tpg.com.au,476918680,
Helen Baker,bakerh@tpg.com.au,476918680,
Helen Baker,bakerh@tpg.com.au,476918680,
Helen Baker,bakerh@tpg.com.au,476918680,
Helen Baker,bakerh@tpg.com.au,476918680,
Helen Baker,bakerh@tpg.com.au,476918680,
Helen Baker,bakerh@tpg.com.au,476918680,
Helen Baker,bakerh@tpg.com.au,476918680,
Helen Baker,bakerh@tpg.com.au,476918680,
Helen Baker,bakerh@tpg.com.au,476918680,
Helen Baker,bakerh@tpg.com.au,476918680,TRIAL70
Stevie Hastings,Steviehastings@gmail.com,477044410,
Stevie Hastings,Steviehastings@gmail.com,477044410,BUY70
Stevie Hastings,indianslinky@icloud.com,477044410,TRIAL40
Serenay Sunnetci,Purple_magnolia98@hotmail.com,478220229,
Serenay Sunnetci,Purple_magnolia98@hotmail.com,478220229,TRIAL40
Serenay Sunnetci,Serenaysunnetci99@gmail.com,478220229,TRIAL40
tina barez,tina.barez@gmail.com,478514595,TRY70
ahmed alam,usama_alam1@hotmail.com,478514595,TRY70
Megan Sun,megansun0@gmail.com,478925816,NEWFOOD40
Megan Sun,megan.sun+5@madpaws.com.au,478925816,TRIAL40
Megan Sun,megan.sun@madpaws.com.au,478925816,WEEKEND50
Wayne Zheng,wchang235@yahoo.com,481841962,BOWL70
Wayne Chang,wchang235@gmail.com,481841962,
Wayne Chang,wchang235@gmail.com,481841962,BOWL70
Michelle Osai,michelleosai77@gmail.com,488520200,TRIAL40
Michelle Joseph,michelleleejoseph@gmail.com,488520200,BOWL70
Penny Lee,Penlee9696@gmail.com,492978817,
P D,Peeediddy89@gmail.com,492978817,TRIAL70
Penny Lee,Penlee9696@gmail.com,492978817,TRIAL40
Herman Cheung,Hcheung778@gmail.com,492978817,BOWL70
Jaimee Foley,Chardrennan@hotmail.co.uk,0410 524 633,SOCIAL70
Jaimee Foley,peachycatering@gmail.com,0410 524 633,TRIAL40
Thu Nguyen,sweet_sour_babydoll@yahoo.com,0422 890 292,KIBBLE70
Thu Nguyen,jennifernguyen602@yahoo.com,0422 890 292,
Thu Nguyen,jennifernguyen602@yahoo.com,0422 890 292,SOCIAL70
TANIA DARGAVILLE,idrene64@gmail.com,0423 520 645,
TANIA DARGAVILLE,IDRENE64@GMAIL.COM,0423 520 645,
Amy Mckinnon,jesse8892002@yahoo.com,424 986 838,TRIAL40
Amy Mckinnon,amyandjaz23@gmail.com,424 986 838,TRIAL40
